<?xml version="1.0" encoding="UTF-8"?>
<svg width="30px" height="30px" viewBox="0 0 30 30" version="1.1" xmlns="http://www.w3.org/2000/svg" xmlns:xlink="http://www.w3.org/1999/xlink">
    <!-- Generator: Sketch 45.2 (43514) - http://www.bohemiancoding.com/sketch -->
    <title>Calendar</title>
    <desc>Created with Sketch.</desc>
    <defs></defs>
    <g id="Muzeum---Kalendarium" stroke="none" stroke-width="1" fill="none" fill-rule="evenodd">
        <g id="Phone" transform="translate(-325.000000, -90.000000)">
            <g id="Calendar" transform="translate(325.000000, 90.000000)">
                <circle id="Oval-3" stroke="#4E555B" cx="15" cy="15" r="14.5"></circle>
                <polygon id="Shape" points="5 6 25 6 25 26 5 26"></polygon>
                <path d="M12,14 L10,14 L10,16 L12,16 L12,14 L12,14 Z M16,14 L14,14 L14,16 L16,16 L16,14 L16,14 Z M20,14 L18,14 L18,16 L20,16 L20,14 L20,14 Z M21,8 L21,6 L19,6 L19,8 L11,8 L11,6 L9,6 L9,8 L8,8 C6.89,8 6.01,8.9 6.01,10 L6,22 C6,23.1 6.89,24 8,24 L22,24 C23.1,24 24,23.1 24,22 L24,10 C24,8.9 23.1,8 22,8 L21,8 Z M22,22 L8,22 L8,12 L22,12 L22,22 L22,22 Z" id="Icon" fill="#4E555B"></path>
            </g>
        </g>
    </g>
</svg>