<?xml version="1.0" encoding="UTF-8"?>
<svg width="30px" height="30px" viewBox="0 0 30 30" version="1.1" xmlns="http://www.w3.org/2000/svg" xmlns:xlink="http://www.w3.org/1999/xlink">
    <!-- Generator: Sketch 45.2 (43514) - http://www.bohemiancoding.com/sketch -->
    <title>search</title>
    <desc>Created with Sketch.</desc>
    <defs></defs>
    <g id="Festiwal---poprzednie-edycje" stroke="none" stroke-width="1" fill="none" fill-rule="evenodd">
        <g id="Desktop-HD" transform="translate(-1224.000000, -59.000000)">
            <g id="Header">
                <g id="Small-menu" transform="translate(1144.000000, 59.000000)">
                    <g id="search" transform="translate(80.000000, 0.000000)">
                        <path d="M18.5,17 L17.71,17 L17.43,16.73 C18.41,15.59 19,14.11 19,12.5 C19,8.91 16.09,6 12.5,6 C8.91,6 6,8.91 6,12.5 C6,16.09 8.91,19 12.5,19 C14.11,19 15.59,18.41 16.73,17.43 L17,17.71 L17,18.5 L22,23.49 L23.49,22 L18.5,17 L18.5,17 Z M12.5,17 C10.01,17 8,14.99 8,12.5 C8,10.01 10.01,8 12.5,8 C14.99,8 17,10.01 17,12.5 C17,14.99 14.99,17 12.5,17 L12.5,17 Z" id="Icon" fill="#FFFFFF"></path>
                        <circle id="Oval-3" stroke="#FFFFFF" cx="15" cy="15" r="14.5"></circle>
                    </g>
                </g>
            </g>
        </g>
    </g>
</svg>